4: mutate() & summarize()
…
One column at a time looks like this:

smoke_complete %>%
    mutate(
      years_to_death = days_to_death/365,
      years_to_birth = days_to_birth/365,
      years_to_last_follow_up = days_to_last_follow_up/365
    ) %>% 
  # check
  select(contains("_to_"))

# A tibble: 1,152 × 6
   days_to_death days_to_birth days_to_last_follow_up years_to_death
           <dbl>         <dbl>                  <dbl>          <dbl>
 1           371        -24477                     NA          1.02 
 2           136        -26615                     NA          0.373
 3          2304        -28171                   2099          6.31 
 4            NA        -27154                   3747         NA    
 5            NA        -23370                   3576         NA    
 6           345        -19025                     NA          0.945
 7           716        -26938                     NA          1.96 
 8          2803        -28430                   1810          7.68 
 9           973        -30435                    956          2.67 
10          1097        -24019                    758          3.01 
# ℹ 1,142 more rows
# ℹ 2 more variables: years_to_birth <dbl>, years_to_last_follow_up <dbl>
…
The .x is a placeholder for the column(s) input,

think of it as algebra with the math operation: column/365.

smoke_complete %>%
    mutate(
        across(.cols = c(days_to_death, 
                         days_to_birth, 
                         days_to_last_follow_up), 
               .fns = ~ .x/365)) %>% 
  # check
  select(contains("_to_"))

# A tibble: 1,152 × 3
   days_to_death days_to_birth days_to_last_follow_up
           <dbl>         <dbl>                  <dbl>
 1         1.02          -67.1                  NA   
 2         0.373         -72.9                  NA   
 3         6.31          -77.2                   5.75
 4        NA             -74.4                  10.3 
 5        NA             -64.0                   9.80
 6         0.945         -52.1                  NA   
 7         1.96          -73.8                  NA   
 8         7.68          -77.9                   4.96
 9         2.67          -83.4                   2.62
10         3.01          -65.8                   2.08
# ℹ 1,142 more rows
…
which renames our columns (essentially a wrapper of mutate()).

smoke_days <- smoke_complete %>%
    mutate(
        across(.cols = c(days_to_death, days_to_birth, days_to_last_follow_up), 
               .fns = ~ .x/365)) %>%
  rename(
    years_to_death = days_to_death,
    years_to_birth = days_to_birth,
    years_to_last_follow_up = days_to_last_follow_up
  ) 
# check
smoke_days %>% select(contains("_to_"))

# A tibble: 1,152 × 3
   years_to_death years_to_birth years_to_last_follow_up
            <dbl>          <dbl>                   <dbl>
 1          1.02           -67.1                   NA   
 2          0.373          -72.9                   NA   
 3          6.31           -77.2                    5.75
 4         NA              -74.4                   10.3 
 5         NA              -64.0                    9.80
 6          0.945          -52.1                   NA   
 7          1.96           -73.8                   NA   
 8          7.68           -77.9                    4.96
 9          2.67           -83.4                    2.62
10          3.01           -65.8                    2.08
# ℹ 1,142 more rows
…
glue to manipulate strings, and

stringr package functions such as str_replace

we can change the names using the .names= argument inside across() with these methods:

smoke_days <- smoke_complete %>%
    mutate(
        across(.cols = c(days_to_death, days_to_birth, days_to_last_follow_up), 
               .fns = ~ .x/365,
               .names = "{str_replace(.col, 'years','days')}")) 

smoke_days %>% select(contains("_to_"))

# A tibble: 1,152 × 3
   days_to_death days_to_birth days_to_last_follow_up
           <dbl>         <dbl>                  <dbl>
 1         1.02          -67.1                  NA   
 2         0.373         -72.9                  NA   
 3         6.31          -77.2                   5.75
 4        NA             -74.4                  10.3 
 5        NA             -64.0                   9.80
 6         0.945         -52.1                  NA   
 7         1.96          -73.8                  NA   
 8         7.68          -77.9                   4.96
 9         2.67          -83.4                   2.62
10         3.01          -65.8                   2.08
# ℹ 1,142 more rows

What if we had many, many “days_to” columns?

That still is a lot of typing…

We can actually use across() in a more powerful with tidyselect.

First, remember how we can use select() with the tidyselect syntax, such as:

smoke_complete %>% select(starts_with("days"))

# A tibble: 1,152 × 3
   days_to_death days_to_birth days_to_last_follow_up
           <dbl>         <dbl>                  <dbl>
 1           371        -24477                     NA
 2           136        -26615                     NA
 3          2304        -28171                   2099
 4            NA        -27154                   3747
 5            NA        -23370                   3576
 6           345        -19025                     NA
 7           716        -26938                     NA
 8          2803        -28430                   1810
 9           973        -30435                    956
10          1097        -24019                    758
# ℹ 1,142 more rows
…
for instance, we could call the same variables by using starts_with("days").

smoke_days <- smoke_complete %>%
    mutate(
        across(.cols = starts_with("days"), # now we are using tidyselect here
               .fns = ~ .x/365)) %>%
  rename(
    years_to_death = days_to_death,
    years_to_birth = days_to_birth,
    years_to_last_follow_up = days_to_last_follow_up
  ) 

smoke_days %>% select(contains("_to_"))

# A tibble: 1,152 × 3
   years_to_death years_to_birth years_to_last_follow_up
            <dbl>          <dbl>                   <dbl>
 1          1.02           -67.1                   NA   
 2          0.373          -72.9                   NA   
 3          6.31           -77.2                    5.75
 4         NA              -74.4                   10.3 
 5         NA              -64.0                    9.80
 6          0.945          -52.1                   NA   
 7          1.96           -73.8                   NA   
 8          7.68           -77.9                    4.96
 9          2.67           -83.4                    2.62
10          3.01           -65.8                    2.08
# ℹ 1,142 more rows
…
