3: Data Visualization and Data Manipulation
…
filter to have only males from the data.

The pipe (%>%) function acts like the “and then”:

# Take my dataset smoke complete **and then**
smoke_complete %>%
  
# sort it by cigarettes_per day **and then**
  arrange(cigarettes_per_day) %>%

# filter it to only have males
  filter(gender == "male")

# A tibble: 786 × 6
   age_at_diagnosis tumor_stage cigarettes_per_day gender vital_status disease
              <dbl> <chr>                    <dbl> <chr>  <chr>        <chr>  
 1            18051 stage iii              0.00822 male   dead         BLCA   
 2            29288 stage iii              0.0548  male   dead         BLCA   
 3            18983 stage ii               0.0822  male   dead         BLCA   
 4            22632 stage iiia             0.110   male   dead         LUSC   
 5            22632 stage iiia             0.110   male   dead         LUSC   
 6            20632 stage iib              0.110   male   alive        LUSC   
 7            20632 stage iib              0.110   male   alive        LUSC   
 8            25579 stage iii              0.110   male   dead         BLCA   
 9            23156 stage i                0.137   male   dead         LUSC   
10            23156 stage i                0.137   male   dead         LUSC   
# ℹ 776 more rows

5.2 %>%: output of one step is the input of another

You can think of a pipe as putting the output of one step as an input of another.

These two statements are equivalent:

smoke_complete %>%
  arrange(cigarettes_per_day)

# A tibble: 1,152 × 6
   age_at_diagnosis tumor_stage  cigarettes_per_day gender vital_status disease
              <dbl> <chr>                     <dbl> <chr>  <chr>        <chr>  
 1            18051 stage iii               0.00822 male   dead         BLCA   
 2            19847 not reported            0.0110  female alive        CESC   
 3            14225 not reported            0.0219  female dead         CESC   
 4            31258 not reported            0.0312  female alive        CESC   
 5            27449 stage ii                0.0548  female dead         LUSC   
 6            27449 stage ii                0.0548  female dead         LUSC   
 7            16429 stage iii               0.0548  female dead         LUSC   
 8            16429 stage iii               0.0548  female dead         LUSC   
 9            15965 not reported            0.0548  female alive        CESC   
10            17465 not reported            0.0548  female dead         CESC   
# ℹ 1,142 more rows

and

arrange(smoke_complete, cigarettes_per_day)

# A tibble: 1,152 × 6
   age_at_diagnosis tumor_stage  cigarettes_per_day gender vital_status disease
              <dbl> <chr>                     <dbl> <chr>  <chr>        <chr>  
 1            18051 stage iii               0.00822 male   dead         BLCA   
 2            19847 not reported            0.0110  female alive        CESC   
 3            14225 not reported            0.0219  female dead         CESC   
 4            31258 not reported            0.0312  female alive        CESC   
 5            27449 stage ii                0.0548  female dead         LUSC   
 6            27449 stage ii                0.0548  female dead         LUSC   
 7            16429 stage iii               0.0548  female dead         LUSC   
 8            16429 stage iii               0.0548  female dead         LUSC   
 9            15965 not reported            0.0548  female alive        CESC   
10            17465 not reported            0.0548  female dead         CESC   
# ℹ 1,142 more rows

5.3 Why pipes?

Pipes make it easier to put together commands.

Without pipes, I’d have to do the following:

arrange(
  filter(smoke_complete, 
         gender == "male"),
  cigarettes_per_day
)

# A tibble: 786 × 6
   age_at_diagnosis tumor_stage cigarettes_per_day gender vital_status disease
              <dbl> <chr>                    <dbl> <chr>  <chr>        <chr>  
 1            18051 stage iii              0.00822 male   dead         BLCA   
 2            29288 stage iii              0.0548  male   dead         BLCA   
 3            18983 stage ii               0.0822  male   dead         BLCA   
 4            22632 stage iiia             0.110   male   dead         LUSC   
 5            22632 stage iiia             0.110   male   dead         LUSC   
 6            20632 stage iib              0.110   male   alive        LUSC   
 7            20632 stage iib              0.110   male   alive        LUSC   
 8            25579 stage iii              0.110   male   dead         BLCA   
 9            23156 stage i                0.137   male   dead         LUSC   
10            23156 stage i                0.137   male   dead         LUSC   
# ℹ 776 more rows
…
filter()

&, |, !

6.1 Sorting data frames using arrange()

arrange() is a function that lets us sort a dataset by a specified variable

By default, it sorts in ascending order:

smoke_complete %>% 
  arrange(cigarettes_per_day)

# A tibble: 1,152 × 6
   age_at_diagnosis tumor_stage  cigarettes_per_day gender vital_status disease
              <dbl> <chr>                     <dbl> <chr>  <chr>        <chr>  
 1            18051 stage iii               0.00822 male   dead         BLCA   
 2            19847 not reported            0.0110  female alive        CESC   
 3            14225 not reported            0.0219  female dead         CESC   
 4            31258 not reported            0.0312  female alive        CESC   
 5            27449 stage ii                0.0548  female dead         LUSC   
 6            27449 stage ii                0.0548  female dead         LUSC   
 7            16429 stage iii               0.0548  female dead         LUSC   
 8            16429 stage iii               0.0548  female dead         LUSC   
 9            15965 not reported            0.0548  female alive        CESC   
10            17465 not reported            0.0548  female dead         CESC   
# ℹ 1,142 more rows

To sort by descending order, you need to wrap the variable in the desc() function:

smoke_complete %>%
  arrange(desc(cigarettes_per_day))

# A tibble: 1,152 × 6
   age_at_diagnosis tumor_stage cigarettes_per_day gender vital_status disease
              <dbl> <chr>                    <dbl> <chr>  <chr>        <chr>  
 1            17635 stage iv                 40    male   dead         BLCA   
 2            27708 stage ia                 13.2  male   dead         LUSC   
 3            27708 stage ia                 13.2  male   dead         LUSC   
 4            24477 stage ia                 11.0  male   dead         LUSC   
 5            24477 stage ia                 11.0  male   dead         LUSC   
 6            24713 stage iiia               10.5  male   dead         LUSC   
 7            24713 stage iiia               10.5  male   dead         LUSC   
 8            25646 stage ib                  9.86 male   alive        LUSC   
 9            25646 stage ib                  9.86 male   alive        LUSC   
10            25506 stage ib                  8.88 male   alive        LUSC   
# ℹ 1,142 more rows

You can also arrange by multiple variables.

smoke_complete %>%
  arrange(desc(cigarettes_per_day),
          tumor_stage)

# A tibble: 1,152 × 6
   age_at_diagnosis tumor_stage cigarettes_per_day gender vital_status disease
              <dbl> <chr>                    <dbl> <chr>  <chr>        <chr>  
 1            17635 stage iv                 40    male   dead         BLCA   
 2            27708 stage ia                 13.2  male   dead         LUSC   
 3            27708 stage ia                 13.2  male   dead         LUSC   
 4            24477 stage ia                 11.0  male   dead         LUSC   
 5            24477 stage ia                 11.0  male   dead         LUSC   
 6            24713 stage iiia               10.5  male   dead         LUSC   
 7            24713 stage iiia               10.5  male   dead         LUSC   
 8            25646 stage ib                  9.86 male   alive        LUSC   
 9            25646 stage ib                  9.86 male   alive        LUSC   
10            25506 stage ib                  8.88 male   alive        LUSC   
# ℹ 1,142 more rows

Note that order of variables in arrange() matters!

smoke_complete %>%
  arrange(
    tumor_stage,
    desc(cigarettes_per_day)
          )

# A tibble: 1,152 × 6
   age_at_diagnosis tumor_stage  cigarettes_per_day gender vital_status disease
              <dbl> <chr>                     <dbl> <chr>  <chr>        <chr>  
 1            25220 not reported               3.12 female alive        CESC   
 2            28873 not reported               3.07 female dead         CESC   
 3            18773 not reported               2.90 female alive        CESC   
 4            16231 not reported               2.85 female dead         CESC   
 5            24059 not reported               2.74 female dead         CESC   
 6            20302 not reported               2.74 female alive        CESC   
 7            28826 not reported               2.47 male   dead         LUSC   
 8            28826 not reported               2.47 male   dead         LUSC   
 9            21520 not reported               2.19 female dead         CESC   
10            20207 not reported               2.19 female alive        CESC   
# ℹ 1,142 more rows

6.2 (Mini) Challenge 2

Use arrange() to sort by disease and descending by tumor_stage.

# edit the code below
smoke_complete %>%
  arrange()

# A tibble: 1,152 × 6
   age_at_diagnosis tumor_stage  cigarettes_per_day gender vital_status disease
              <dbl> <chr>                     <dbl> <chr>  <chr>        <chr>  
 1            18051 stage iii               0.00822 male   dead         BLCA   
 2            19847 not reported            0.0110  female alive        CESC   
 3            14225 not reported            0.0219  female dead         CESC   
 4            31258 not reported            0.0312  female alive        CESC   
 5            27449 stage ii                0.0548  female dead         LUSC   
 6            27449 stage ii                0.0548  female dead         LUSC   
 7            16429 stage iii               0.0548  female dead         LUSC   
 8            16429 stage iii               0.0548  female dead         LUSC   
 9            15965 not reported            0.0548  female alive        CESC   
10            17465 not reported            0.0548  female dead         CESC   
# ℹ 1,142 more rows

6.3 filter()ing our data

filter() lets us subset our data according to specific criteria.

Let’s filter on the numeric variable cigarettes_per_day:

smoke_complete %>%
  filter(cigarettes_per_day < 20)

# A tibble: 1,151 × 6
   age_at_diagnosis tumor_stage  cigarettes_per_day gender vital_status disease
              <dbl> <chr>                     <dbl> <chr>  <chr>        <chr>  
 1            18051 stage iii               0.00822 male   dead         BLCA   
 2            19847 not reported            0.0110  female alive        CESC   
 3            14225 not reported            0.0219  female dead         CESC   
 4            31258 not reported            0.0312  female alive        CESC   
 5            27449 stage ii                0.0548  female dead         LUSC   
 6            27449 stage ii                0.0548  female dead         LUSC   
 7            16429 stage iii               0.0548  female dead         LUSC   
 8            16429 stage iii               0.0548  female dead         LUSC   
 9            15965 not reported            0.0548  female alive        CESC   
10            17465 not reported            0.0548  female dead         CESC   
# ℹ 1,141 more rows

We can also filter categorical variables.

This requires us to know the values (levels) of the categorical variable. More on this in a bit…

smoke_complete %>%
  filter(tumor_stage == "stage iv")

# A tibble: 91 × 6
   age_at_diagnosis tumor_stage cigarettes_per_day gender vital_status disease
              <dbl> <chr>                    <dbl> <chr>  <chr>        <chr>  
 1            21491 stage iv                 0.164 male   dead         BLCA   
 2            28082 stage iv                 0.219 male   alive        BLCA   
 3            24267 stage iv                 0.219 male   dead         BLCA   
 4            28470 stage iv                 0.274 male   alive        BLCA   
 5            23538 stage iv                 0.384 female alive        BLCA   
 6            22122 stage iv                 0.438 female alive        BLCA   
 7            30205 stage iv                 0.534 male   dead         BLCA   
 8            26893 stage iv                 0.548 male   dead         BLCA   
 9            27496 stage iv                 0.548 female dead         BLCA   
10            27397 stage iv                 0.548 female dead         BLCA   
# ℹ 81 more rows

We can also combine different filtering conditions:

smoke_complete %>%
  filter(tumor_stage == "stage iv", # note the comma
         cigarettes_per_day < 20)

# A tibble: 90 × 6
   age_at_diagnosis tumor_stage cigarettes_per_day gender vital_status disease
              <dbl> <chr>                    <dbl> <chr>  <chr>        <chr>  
 1            21491 stage iv                 0.164 male   dead         BLCA   
 2            28082 stage iv                 0.219 male   alive        BLCA   
 3            24267 stage iv                 0.219 male   dead         BLCA   
 4            28470 stage iv                 0.274 male   alive        BLCA   
 5            23538 stage iv                 0.384 female alive        BLCA   
 6            22122 stage iv                 0.438 female alive        BLCA   
 7            30205 stage iv                 0.534 male   dead         BLCA   
 8            26893 stage iv                 0.548 male   dead         BLCA   
 9            27496 stage iv                 0.548 female dead         BLCA   
10            27397 stage iv                 0.548 female dead         BLCA   
# ℹ 80 more rows
…
AND: &, ,
OR: |
Which option is “bigger”?

If we want to restrict to patients who were

male and stage iv,

we would use an & to chain these criteria together:

smoke_complete %>%
  filter(gender == "male" & 
           tumor_stage == "stage iv")

# A tibble: 75 × 6
   age_at_diagnosis tumor_stage cigarettes_per_day gender vital_status disease
              <dbl> <chr>                    <dbl> <chr>  <chr>        <chr>  
 1            21491 stage iv                 0.164 male   dead         BLCA   
 2            28082 stage iv                 0.219 male   alive        BLCA   
 3            24267 stage iv                 0.219 male   dead         BLCA   
 4            28470 stage iv                 0.274 male   alive        BLCA   
 5            30205 stage iv                 0.534 male   dead         BLCA   
 6            26893 stage iv                 0.548 male   dead         BLCA   
 7            30674 stage iv                 0.658 male   dead         BLCA   
 8            27049 stage iv                 0.767 male   alive        BLCA   
 9            21233 stage iv                 0.822 male   alive        BLCA   
10            20420 stage iv                 0.822 male   alive        BLCA   
# ℹ 65 more rows

Note that we could also use the comma in this case, as above:

smoke_complete %>%
  filter(gender == "male",
         tumor_stage == "stage iv")

# A tibble: 75 × 6
   age_at_diagnosis tumor_stage cigarettes_per_day gender vital_status disease
              <dbl> <chr>                    <dbl> <chr>  <chr>        <chr>  
 1            21491 stage iv                 0.164 male   dead         BLCA   
 2            28082 stage iv                 0.219 male   alive        BLCA   
 3            24267 stage iv                 0.219 male   dead         BLCA   
 4            28470 stage iv                 0.274 male   alive        BLCA   
 5            30205 stage iv                 0.534 male   dead         BLCA   
 6            26893 stage iv                 0.548 male   dead         BLCA   
 7            30674 stage iv                 0.658 male   dead         BLCA   
 8            27049 stage iv                 0.767 male   alive        BLCA   
 9            21233 stage iv                 0.822 male   alive        BLCA   
10            20420 stage iv                 0.822 male   alive        BLCA   
# ℹ 65 more rows

If we want to restrict to patients who were

male or stage iv,

we would use an | to chain these criteria together.

smoke_complete %>%
  filter(gender == "male" |
           tumor_stage == "stage iv")

# A tibble: 802 × 6
   age_at_diagnosis tumor_stage cigarettes_per_day gender vital_status disease
              <dbl> <chr>                    <dbl> <chr>  <chr>        <chr>  
 1            18051 stage iii              0.00822 male   dead         BLCA   
 2            29288 stage iii              0.0548  male   dead         BLCA   
 3            18983 stage ii               0.0822  male   dead         BLCA   
 4            22632 stage iiia             0.110   male   dead         LUSC   
 5            22632 stage iiia             0.110   male   dead         LUSC   
 6            20632 stage iib              0.110   male   alive        LUSC   
 7            20632 stage iib              0.110   male   alive        LUSC   
 8            25579 stage iii              0.110   male   dead         BLCA   
 9            23156 stage i                0.137   male   dead         LUSC   
10            23156 stage i                0.137   male   dead         LUSC   
# ℹ 792 more rows

Think about it: which of the above two code blocks will return a larger number of patients?

6.5 != NOT EQUAL

We can also negate operators.

!= means NOT EQUAL

smoke_complete %>%
  filter(gender != "male")

# A tibble: 366 × 6
   age_at_diagnosis tumor_stage  cigarettes_per_day gender vital_status disease
              <dbl> <chr>                     <dbl> <chr>  <chr>        <chr>  
 1            19847 not reported             0.0110 female alive        CESC   
 2            14225 not reported             0.0219 female dead         CESC   
 3            31258 not reported             0.0312 female alive        CESC   
 4            27449 stage ii                 0.0548 female dead         LUSC   
 5            27449 stage ii                 0.0548 female dead         LUSC   
 6            16429 stage iii                0.0548 female dead         LUSC   
 7            16429 stage iii                0.0548 female dead         LUSC   
 8            15965 not reported             0.0548 female alive        CESC   
 9            17465 not reported             0.0548 female dead         CESC   
10            15849 not reported             0.0548 female alive        CESC   
# ℹ 356 more rows

Or, we can negate a whole statement:

smoke_complete %>%
  filter(!(gender == "male"))

# A tibble: 366 × 6
   age_at_diagnosis tumor_stage  cigarettes_per_day gender vital_status disease
              <dbl> <chr>                     <dbl> <chr>  <chr>        <chr>  
 1            19847 not reported             0.0110 female alive        CESC   
 2            14225 not reported             0.0219 female dead         CESC   
 3            31258 not reported             0.0312 female alive        CESC   
 4            27449 stage ii                 0.0548 female dead         LUSC   
 5            27449 stage ii                 0.0548 female dead         LUSC   
 6            16429 stage iii                0.0548 female dead         LUSC   
 7            16429 stage iii                0.0548 female dead         LUSC   
 8            15965 not reported             0.0548 female alive        CESC   
 9            17465 not reported             0.0548 female dead         CESC   
10            15849 not reported             0.0548 female alive        CESC   
# ℹ 356 more rows
…
