Survey Feedback BSTA 526
…
mtcars_tib <- as_tibble(mtcars)
class(mtcars_tib)

[1] "tbl_df"     "tbl"        "data.frame"

mtcars_tib

# A tibble: 32 × 11
     mpg   cyl  disp    hp  drat    wt  qsec    vs    am  gear  carb
   <dbl> <dbl> <dbl> <dbl> <dbl> <dbl> <dbl> <dbl> <dbl> <dbl> <dbl>
 1  21       6  160    110  3.9   2.62  16.5     0     1     4     4
 2  21       6  160    110  3.9   2.88  17.0     0     1     4     4
 3  22.8     4  108     93  3.85  2.32  18.6     1     1     4     1
 4  21.4     6  258    110  3.08  3.22  19.4     1     0     3     1
 5  18.7     8  360    175  3.15  3.44  17.0     0     0     3     2
 6  18.1     6  225    105  2.76  3.46  20.2     1     0     3     1
 7  14.3     8  360    245  3.21  3.57  15.8     0     0     3     4
 8  24.4     4  147.    62  3.69  3.19  20       1     0     4     2
 9  22.8     4  141.    95  3.92  3.15  22.9     1     0     4     2
10  19.2     6  168.   123  3.92  3.44  18.3     1     0     4     4
# ℹ 22 more rows

Another interesting difference is that tibbles don’t have row names, but a lot of built in data.frames in R do. But rownames are hard to get out. So, when you make a tibble of a data.frame you can tell the function to use the rownames as a column:

mtcars_tib <- as_tibble(mtcars, rownames = "car_name")
mtcars_tib

# A tibble: 32 × 12
   car_name      mpg   cyl  disp    hp  drat    wt  qsec    vs    am  gear  carb
   <chr>       <dbl> <dbl> <dbl> <dbl> <dbl> <dbl> <dbl> <dbl> <dbl> <dbl> <dbl>
 1 Mazda RX4    21       6  160    110  3.9   2.62  16.5     0     1     4     4
 2 Mazda RX4 …  21       6  160    110  3.9   2.88  17.0     0     1     4     4
 3 Datsun 710   22.8     4  108     93  3.85  2.32  18.6     1     1     4     1
 4 Hornet 4 D…  21.4     6  258    110  3.08  3.22  19.4     1     0     3     1
 5 Hornet Spo…  18.7     8  360    175  3.15  3.44  17.0     0     0     3     2
 6 Valiant      18.1     6  225    105  2.76  3.46  20.2     1     0     3     1
 7 Duster 360   14.3     8  360    245  3.21  3.57  15.8     0     0     3     4
 8 Merc 240D    24.4     4  147.    62  3.69  3.19  20       1     0     4     2
 9 Merc 230     22.8     4  141.    95  3.92  3.15  22.9     1     0     4     2
10 Merc 280     19.2     6  168.   123  3.92  3.44  18.3     1     0     4     4
# ℹ 22 more rows
Tibbles also clearly delineate [ and [[: [ always returns another tibble, [[ always returns a vector. No more drop = FALSE!

If we ask for the first column using the [] notation, we receive a numeric vector from a data frame, and a tibble/data.frame from the tibble.

We have not learned the [[]] yet because we have not talked about lists in R, but we will soon. The code below returns the first column as a vector for both a data frame and a tibble.

mtcars[,1]

 [1] 21.0 21.0 22.8 21.4 18.7 18.1 14.3 24.4 22.8 19.2 17.8 16.4 17.3 15.2 10.4
[16] 10.4 14.7 32.4 30.4 33.9 21.5 15.5 15.2 13.3 19.2 27.3 26.0 30.4 15.8 19.7
[31] 15.0 21.4

mtcars_tib[,1]

# A tibble: 32 × 1
   car_name         
   <chr>            
 1 Mazda RX4        
 2 Mazda RX4 Wag    
 3 Datsun 710       
 4 Hornet 4 Drive   
 5 Hornet Sportabout
 6 Valiant          
 7 Duster 360       
 8 Merc 240D        
 9 Merc 230         
10 Merc 280         
# ℹ 22 more rows
…
Agreed, it’s very confusing, more in class 4!

Could you please clarify about the use of select(one_of) and the count command that was mentioned in dplyr cheatsheet?

These are very different, if you are talking about select() vs count(). One thing to note is that since I recorded that class, one_of() has been superseded/replaced by any_of() and all_of().

First, select() is a function to subset columns.

library(palmerpenguins)

Here we specify the columns we want in the order we want:

penguins %>% select(bill_length_mm, island, species, year)

# A tibble: 344 × 4
   bill_length_mm island    species  year
            <dbl> <fct>     <fct>   <int>
 1           39.1 Torgersen Adelie   2007
 2           39.5 Torgersen Adelie   2007
 3           40.3 Torgersen Adelie   2007
 4           NA   Torgersen Adelie   2007
 5           36.7 Torgersen Adelie   2007
 6           39.3 Torgersen Adelie   2007
 7           38.9 Torgersen Adelie   2007
 8           39.2 Torgersen Adelie   2007
 9           34.1 Torgersen Adelie   2007
10           42   Torgersen Adelie   2007
# ℹ 334 more rows

Here, we pass a vector of character names, both of which work:

penguins %>% select(c("bill_length_mm","island","species","year"))

# A tibble: 344 × 4
   bill_length_mm island    species  year
            <dbl> <fct>     <fct>   <int>
 1           39.1 Torgersen Adelie   2007
 2           39.5 Torgersen Adelie   2007
 3           40.3 Torgersen Adelie   2007
 4           NA   Torgersen Adelie   2007
 5           36.7 Torgersen Adelie   2007
 6           39.3 Torgersen Adelie   2007
 7           38.9 Torgersen Adelie   2007
 8           39.2 Torgersen Adelie   2007
 9           34.1 Torgersen Adelie   2007
10           42   Torgersen Adelie   2007
# ℹ 334 more rows

penguins %>% select(any_of(c("bill_length_mm","island","species","year")))

# A tibble: 344 × 4
   bill_length_mm island    species  year
            <dbl> <fct>     <fct>   <int>
 1           39.1 Torgersen Adelie   2007
 2           39.5 Torgersen Adelie   2007
 3           40.3 Torgersen Adelie   2007
 4           NA   Torgersen Adelie   2007
 5           36.7 Torgersen Adelie   2007
 6           39.3 Torgersen Adelie   2007
 7           38.9 Torgersen Adelie   2007
 8           39.2 Torgersen Adelie   2007
 9           34.1 Torgersen Adelie   2007
10           42   Torgersen Adelie   2007
# ℹ 334 more rows
…
colnames_needed <- c("bill_length_mm","island","species","year")
penguins %>% select(colnames_needed)

Warning: Using an external vector in selections was deprecated in tidyselect 1.1.0.
ℹ Please use `all_of()` or `any_of()` instead.
  # Was:
  data %>% select(colnames_needed)

  # Now:
  data %>% select(all_of(colnames_needed))

See <https://tidyselect.r-lib.org/reference/faq-external-vector.html>.

# A tibble: 344 × 4
   bill_length_mm island    species  year
            <dbl> <fct>     <fct>   <int>
 1           39.1 Torgersen Adelie   2007
 2           39.5 Torgersen Adelie   2007
 3           40.3 Torgersen Adelie   2007
 4           NA   Torgersen Adelie   2007
 5           36.7 Torgersen Adelie   2007
 6           39.3 Torgersen Adelie   2007
 7           38.9 Torgersen Adelie   2007
 8           39.2 Torgersen Adelie   2007
 9           34.1 Torgersen Adelie   2007
10           42   Torgersen Adelie   2007
# ℹ 334 more rows

But the key about any_of and all_of is what it allows. any_of() allows column names that don’t exist! Using no tidyselect helper or all_of() does not allow this. Which you use depends on what you want to allow to happen.

colnames_needed <- c("bill_length_mm","island","species","year","MISSING")
# penguins %>% select((colnames_needed)) # does not work
penguins %>% select(any_of(colnames_needed)) # works!

# A tibble: 344 × 4
   bill_length_mm island    species  year
            <dbl> <fct>     <fct>   <int>
 1           39.1 Torgersen Adelie   2007
 2           39.5 Torgersen Adelie   2007
 3           40.3 Torgersen Adelie   2007
 4           NA   Torgersen Adelie   2007
 5           36.7 Torgersen Adelie   2007
 6           39.3 Torgersen Adelie   2007
 7           38.9 Torgersen Adelie   2007
 8           39.2 Torgersen Adelie   2007
 9           34.1 Torgersen Adelie   2007
10           42   Torgersen Adelie   2007
# ℹ 334 more rows
…
Essentially the same. From the help documentation ?factor: “as.factor coerces its argument to a factor. It is an abbreviated (sometimes faster) form of factor.”

I would like to know when you recommend that we save a new data set once we create new covariates. Also, it is unclear to me how you add the variable to the existing data.

If I want to use that column/covariate again, I save it (so almost always, as I don’t often make a column without using it later). I usually save it back into the original data set I’m working with, that is, overwrite that object to be updated with the new column. As long as I keep track of my changes this is definitely ok. It can get confusing having too many versions of a data set floating around. If something is broken, the worst that happens is that you’ll just need to start from the beginning and reload your data (the data file will remain untouched) and re-run the code.

library(tidyverse)
library(palmerpenguins)

# does not save the new column, just prints result
penguins %>% 
  mutate(newvec = bill_length_mm/bill_depth_mm)

# A tibble: 344 × 13
   species island    bill_length_mm bill_depth_mm flipper_length_mm body_mass_g
   <fct>   <fct>              <dbl>         <dbl>             <int>       <int>
 1 Adelie  Torgersen           39.1          18.7               181        3750
 2 Adelie  Torgersen           39.5          17.4               186        3800
 3 Adelie  Torgersen           40.3          18                 195        3250
 4 Adelie  Torgersen           NA            NA                  NA          NA
 5 Adelie  Torgersen           36.7          19.3               193        3450
 6 Adelie  Torgersen           39.3          20.6               190        3650
 7 Adelie  Torgersen           38.9          17.8               181        3625
 8 Adelie  Torgersen           39.2          19.6               195        4675
 9 Adelie  Torgersen           34.1          18.1               193        3475
10 Adelie  Torgersen           42            20.2               190        4250
# ℹ 334 more rows
# ℹ 7 more variables: sex <fct>, year <int>, long_bill1 <chr>,
#   long_bill2 <chr>, long_bill3 <chr>, long_bill4 <chr>, newvec <dbl>
…
And this needs to go inside the nested functions mutate(across()) as an argument: mutate(across(.cols = ----, .fns = ----)):

library(tidyverse)
library(palmerpenguins)

penguins %>% mutate(
  across(.cols = c(bill_length_mm, body_mass_g),
         .fns = ~ exp(.x)^3 - .x/10))

# A tibble: 344 × 14
   species island    bill_length_mm bill_depth_mm flipper_length_mm body_mass_g
   <fct>   <fct>              <dbl>         <dbl>             <int>       <dbl>
 1 Adelie  Torgersen        8.76e50          18.7               181         Inf
 2 Adelie  Torgersen        2.91e51          17.4               186         Inf
 3 Adelie  Torgersen        3.21e52          18                 195         Inf
 4 Adelie  Torgersen       NA                NA                  NA          NA
 5 Adelie  Torgersen        6.54e47          19.3               193         Inf
 6 Adelie  Torgersen        1.60e51          20.6               190         Inf
 7 Adelie  Torgersen        4.81e50          17.8               181         Inf
 8 Adelie  Torgersen        1.18e51          19.6               195         Inf
 9 Adelie  Torgersen        2.68e44          18.1               193         Inf
10 Adelie  Torgersen        5.26e54          20.2               190         Inf
# ℹ 334 more rows
# ℹ 8 more variables: sex <fct>, year <int>, long_bill1 <chr>,
#   long_bill2 <chr>, long_bill3 <chr>, long_bill4 <chr>, newvec <dbl>,
#   large_mass <chr>
…
across() can only be used as a helper function inside mutate or summarize applied to a data frame/tibble

Also:

inside across() we need to use very specific syntax which is called tidyselect.

Think of across() and select() as friends, because they use the same language to select columns.

But across() is used more like map() in that it takes a “what” argument (.cols = tidy select columns for across, .x = a list or vector for map) and “function” argument (.fns= for across because multiple functions can be supplied, .f= for map because only one function can be applied)

library(palmerpenguins)

penguins %>% select(where(is.numeric))

# A tibble: 344 × 7
   bill_length_mm bill_depth_mm flipper_length_mm body_mass_g  year newvec
            <dbl>         <dbl>             <int>       <int> <int>  <dbl>
 1           39.1          18.7               181        3750  2007   2.09
 2           39.5          17.4               186        3800  2007   2.27
 3           40.3          18                 195        3250  2007   2.24
 4           NA            NA                  NA          NA  2007  NA   
 5           36.7          19.3               193        3450  2007   1.90
 6           39.3          20.6               190        3650  2007   1.91
 7           38.9          17.8               181        3625  2007   2.19
 8           39.2          19.6               195        4675  2007   2   
 9           34.1          18.1               193        3475  2007   1.88
10           42            20.2               190        4250  2007   2.08
# ℹ 334 more rows
# ℹ 1 more variable: bill_length_cm <dbl>

# penguins %>% across(where(is.numeric))
# Error in `across()`:
# ! Must only be used inside data-masking verbs like `mutate()`,
#   `filter()`, and `group_by()`.

# mutate requires a function that returns a vector the same length as the original vector
penguins %>% mutate(across(.cols = where(is.numeric), .f = as.character))

# A tibble: 344 × 15
   species island    bill_length_mm bill_depth_mm flipper_length_mm body_mass_g
   <fct>   <fct>     <chr>          <chr>         <chr>             <chr>      
 1 Adelie  Torgersen 39.1           18.7          181               3750       
 2 Adelie  Torgersen 39.5           17.4          186               3800       
 3 Adelie  Torgersen 40.3           18            195               3250       
 4 Adelie  Torgersen <NA>           <NA>          <NA>              <NA>       
 5 Adelie  Torgersen 36.7           19.3          193               3450       
 6 Adelie  Torgersen 39.3           20.6          190               3650       
 7 Adelie  Torgersen 38.9           17.8          181               3625       
 8 Adelie  Torgersen 39.2           19.6          195               4675       
 9 Adelie  Torgersen 34.1           18.1          193               3475       
10 Adelie  Torgersen 42             20.2          190               4250       
# ℹ 334 more rows
# ℹ 9 more variables: sex <fct>, year <chr>, long_bill1 <chr>,
#   long_bill2 <chr>, long_bill3 <chr>, long_bill4 <chr>, newvec <chr>,
#   large_mass <chr>, bill_length_cm <chr>

# this works but it shouldn't and is "deprecated" in dplyr 1.1.0
# summarize SHOULD return a vector of length 1
penguins %>% summarize(across(.cols = where(is.numeric), .f = as.character))

Warning: Returning more (or less) than 1 row per `summarise()` group was deprecated in
dplyr 1.1.0.
ℹ Please use `reframe()` instead.
ℹ When switching from `summarise()` to `reframe()`, remember that `reframe()`
  always returns an ungrouped data frame and adjust accordingly.

# A tibble: 344 × 7
   bill_length_mm bill_depth_mm flipper_length_mm body_mass_g year  newvec      
   <chr>          <chr>         <chr>             <chr>       <chr> <chr>       
 1 39.1           18.7          181               3750        2007  2.090909090…
 2 39.5           17.4          186               3800        2007  2.270114942…
 3 40.3           18            195               3250        2007  2.238888888…
 4 <NA>           <NA>          <NA>              <NA>        2007  <NA>        
 5 36.7           19.3          193               3450        2007  1.901554404…
 6 39.3           20.6          190               3650        2007  1.907766990…
 7 38.9           17.8          181               3625        2007  2.185393258…
 8 39.2           19.6          195               4675        2007  2           
 9 34.1           18.1          193               3475        2007  1.883977900…
10 42             20.2          190               4250        2007  2.079207920…
# ℹ 334 more rows
# ℹ 1 more variable: bill_length_cm <chr>
…
